10,10
14,8
25,15
37,11
58,13
70,15
84,10
90,12 
100,8
116,15
-----
124,14
136,13
145,16
162,14
175,20
180,7
194,20
207,12
215,12
238,10
-----
255,10
258,12
261,9
266,12
270,6
277,13
284,10
288,7
295,15
301,8
306,14
312,10
320,12
324,8
329,16
332,18
338,10
346,10
350,18
356,8
------
364,20
370,9
372,15
378,10
380,15
383,13
387,10
390,8
395,10
398,15
400,11
403,8
407,12
412,16
416,15
420,18
422,11
427,15
430,7
434,18
438,12
440,13
448,10
450,11
455,12
458,10
464,19
467,8
470,16
476,8
--------
485,10
487,14
490,14
496,11
500,8
503,10
507,8
510,15
514,16
518,9
523,15
525,10
529,6
535,8
538,16
540,5
544,11
547,7
550,20
552,10
557,11
559,13
565,10
568,17
571,9
574,13
579,15
580,15 
584,10
586,8
